<?xml version="1.0" encoding="UTF-8"?>
<testsuite name="it.unibo.qactors.utils.TestQActorMessage" tests="8" skipped="0" failures="0" errors="0" timestamp="2016-09-06T08:36:50" hostname="anataliTHINK" time="0.004">
  <properties/>
  <testcase name="testDefaultRep" classname="it.unibo.qactors.utils.TestQActorMessage" time="0.001"/>
  <testcase name="testCreateStruct" classname="it.unibo.qactors.utils.TestQActorMessage" time="0.0"/>
  <testcase name="testCreateArgs" classname="it.unibo.qactors.utils.TestQActorMessage" time="0.0"/>
  <testcase name="testDefaultRepMsgTypeNull" classname="it.unibo.qactors.utils.TestQActorMessage" time="0.0"/>
  <testcase name="testCreateNoNumSyntax" classname="it.unibo.qactors.utils.TestQActorMessage" time="0.001"/>
  <testcase name="testContentNormalString" classname="it.unibo.qactors.utils.TestQActorMessage" time="0.0"/>
  <testcase name="testCreateNoPrologSyntax" classname="it.unibo.qactors.utils.TestQActorMessage" time="0.0"/>
  <testcase name="testContentQuotedString" classname="it.unibo.qactors.utils.TestQActorMessage" time="0.0"/>
  <system-out><![CDATA[ *** testDefaultRep *** 
 *** testCreateStruct *** 
 *** testCreateArgs *** 
 *** testDefaultRepMsgTypeNull *** 
 *** testCreateNoNumSyntax *** 
 *** testContentNormalString *** 
		*** testContentNormalString msgRep=msg(info,dispatch,actorSender,actorReceiver,'hello world',1)
		*** msg(info,dispatch,actorSender,actorReceiver,'hello world',1)
 *** testCreateNoPrologSyntax *** 
 *** testContentQuotedString *** 
		*** testContentQuotedString msgRep=msg(info,dispatch,actorSender,actorReceiver,'hello world',1)
		*** msg(info,dispatch,actorSender,actorReceiver,'hello world',1)
]]></system-out>
  <system-err><![CDATA[]]></system-err>
</testsuite>
