<?xml version="1.0" encoding="UTF-8"?>
<testsuite name="it.unibo.qactors.systems.TestASenderReceiver" tests="1" skipped="0" failures="0" errors="0" timestamp="2016-11-06T11:22:23" hostname="anataliTHINK" time="4.797">
  <properties/>
  <testcase name="testSenderReceiver" classname="it.unibo.qactors.systems.TestASenderReceiver" time="4.797"/>
  <system-out><![CDATA[====== TestSenderReceiver ===============
InputInfoCounter=5
	*** ActorUtils terminateTheQActorSystem ctxSender testing=true
	*** ActorUtils terminateTheQActorSystem sel=null
	*** ActorUtils terminateTheQActorSystem ctxReceiver testing=true
	*** ActorUtils terminateTheQActorSystem sel=null
]]></system-out>
  <system-err><![CDATA[]]></system-err>
</testsuite>
