plan(1,init, sentence(true,move(solve,consult( "./theory.pl"),0,""),'','' ))
plan(2,init, sentence(true,move( switchplan(work) ),'','' ))
plan(1,work, sentence( info( T,X),delay( ) ,'','' ))
plan(2,work, sentence( info( T,X),move(print,X),'','' ))
plan(3,work, sentence(-  info( T,X) ,not here ActionMove,'','' ))
plan(4,work, sentence(-  actorOpDone( OP,R) ,addrule( info( t,R) ),'','' ))
plan(5,work, sentence(true,move(repeatplan) ,'','' ))
plan(6,work, sentence(true,move(resumeplan),'','' ))
