<?xml version="1.0" encoding="UTF-8"?>
<testsuite name="it.unibo.firstDeliverable.step0.pc.TestProxyLed" tests="1" skipped="0" failures="0" errors="0" timestamp="2016-10-26T09:15:01" hostname="bzw" time="0.745">
  <properties/>
  <testcase name="testLed" classname="it.unibo.firstDeliverable.step0.pc.TestProxyLed" time="0.745"/>
  <system-out><![CDATA[]]></system-out>
  <system-err><![CDATA[]]></system-err>
</testsuite>
