<?xml version="1.0" encoding="UTF-8"?>
<testsuite name="it.unibo.firstDeliverable.step0.pc.TestButton" tests="1" skipped="0" failures="0" errors="0" timestamp="2016-10-26T09:15:02" hostname="bzw" time="0.156">
  <properties/>
  <testcase name="testButton" classname="it.unibo.firstDeliverable.step0.pc.TestButton" time="0.156"/>
  <system-out><![CDATA[ButtonObserverTest update switch
ButtonObserverTest update true
ButtonObserverTest update switch
ButtonObserverTest update false
]]></system-out>
  <system-err><![CDATA[]]></system-err>
</testsuite>
