\relax 
\providecommand\hyper@newdestlabel[2]{}
\providecommand\HyperFirstAtBeginDocument{\AtBeginDocument}
\HyperFirstAtBeginDocument{\ifx\hyper@anchor\@undefined
\global\let\oldcontentsline\contentsline
\gdef\contentsline#1#2#3#4{\oldcontentsline{#1}{#2}{#3}}
\global\let\oldnewlabel\newlabel
\gdef\newlabel#1#2{\newlabelxx{#1}#2}
\gdef\newlabelxx#1#2#3#4#5#6{\oldnewlabel{#1}{{#2}{#3}}}
\AtEndDocument{\ifx\hyper@anchor\@undefined
\let\contentsline\oldcontentsline
\let\newlabel\oldnewlabel
\fi}
\fi}
\global\let\hyper@last\relax 
\gdef\HyperFirstAtBeginDocument#1{#1}
\providecommand\HyField@AuxAddToFields[1]{}
\providecommand\HyField@AuxAddToCoFields[2]{}
\select@language{english}
\@writefile{toc}{\select@language{english}}
\@writefile{lof}{\select@language{english}}
\@writefile{lot}{\select@language{english}}
\@writefile{toc}{\contentsline {title}{An introduction to the usage of QActors}{1}{chapter.1}}
\@writefile{toc}{\authcount {1}}
\@writefile{toc}{\contentsline {author}{Antonio Natali}{1}{chapter.1}}
\@writefile{toc}{\contentsline {section}{\numberline {1}Introduction}{4}{section.1.1}}
\newlabel{sec:intro}{{1}{4}{Introduction}{section.1.1}{}}
\@writefile{toc}{\contentsline {subsection}{\numberline {1.1}QActor API }{4}{subsection.1.1.1}}
\newlabel{ssec:qactorapi}{{1.1}{4}{QActor API}{subsection.1.1.1}{}}
\@writefile{toc}{\contentsline {subsection}{\numberline {1.2}Actions }{4}{subsection.1.1.2}}
\newlabel{ssec:actions}{{1.2}{4}{Actions}{subsection.1.1.2}{}}
\newlabel{ssec:mind}{{1.2.1}{4}{Logical actions}{subsubsection.1.1.2.1}{}}
\@writefile{toc}{\contentsline {subsubsection}{\numberline {1.2.1}Logical actions.}{4}{subsubsection.1.1.2.1}}
\newlabel{ssec:worldtthfacts}{{1.2.2}{4}{The actor's \texttt {WorldTheory}}{subsubsection.1.1.2.2}{}}
\@writefile{toc}{\contentsline {subsubsection}{\numberline {1.2.2}The actor's \texttt  {WorldTheory}.}{4}{subsubsection.1.1.2.2}}
\newlabel{ssec:physicaction}{{1.2.3}{5}{Physical actions}{subsubsection.1.1.2.3}{}}
\@writefile{toc}{\contentsline {subsubsection}{\numberline {1.2.3}Physical actions.}{5}{subsubsection.1.1.2.3}}
\@writefile{toc}{\contentsline {subsubsection}{\numberline {1.2.4}Application actions. }{5}{subsubsection.1.1.2.4}}
\newlabel{ssec:planactions}{{1.2.5}{5}{PlanActions}{subsubsection.1.1.2.5}{}}
\@writefile{toc}{\contentsline {subsubsection}{\numberline {1.2.5}PlanActions.}{5}{subsubsection.1.1.2.5}}
\@writefile{toc}{\contentsline {subsection}{\numberline {1.3}Plans}{6}{subsection.1.1.3}}
\newlabel{ssec:plans}{{1.3}{6}{Plans}{subsection.1.1.3}{}}
\@writefile{toc}{\contentsline {subsection}{\numberline {1.4}Messages and (reactive) message}{6}{subsection.1.1.4}}
\newlabel{ssec:defmessages}{{1.4}{6}{Messages and (reactive) message}{subsection.1.1.4}{}}
\@writefile{toc}{\contentsline {subsection}{\numberline {1.5}Events and event-driven/event-based behaviour }{6}{subsection.1.1.5}}
\newlabel{ssec:defevents}{{1.5}{6}{Events and event-driven/event-based behaviour}{subsection.1.1.5}{}}
\@writefile{toc}{\contentsline {subsection}{\numberline {1.6}Actor programs as plans}{7}{subsection.1.1.6}}
\newlabel{ssec:actorplans}{{1.6}{7}{Actor programs as plans}{subsection.1.1.6}{}}
\newlabel{ssec:progasfsm}{{1.6.1}{7}{Actor programs as finite state machines (FSM)}{subsubsection.1.1.6.1}{}}
\@writefile{toc}{\contentsline {subsubsection}{\numberline {1.6.1}Actor programs as finite state machines (FSM)}{7}{subsubsection.1.1.6.1}}
\@writefile{toc}{\contentsline {section}{\numberline {2}The \texttt  {qa} language/metamodel.}{9}{section.1.2}}
\newlabel{sec:introqa}{{2}{9}{The \texttt {qa} language/metamodel}{section.1.2}{}}
\@writefile{toc}{\contentsline {subsection}{\numberline {2.1}Example}{9}{subsection.1.2.1}}
\newlabel{ssec:qaexample}{{2.1}{9}{Example}{subsection.1.2.1}{}}
\@writefile{lol}{\contentsline {lstlisting}{\numberline {1.1}\texttt  {basic.qa}}{9}{lstlisting.1.1}}
\@writefile{toc}{\contentsline {subsection}{\numberline {2.2}Workflow}{9}{subsection.1.2.2}}
\newlabel{ssec:qaworkflw}{{2.2}{9}{Workflow}{subsection.1.2.2}{}}
\@writefile{toc}{\contentsline {subsubsection}{\numberline {2.2.1}Application designer and System designer.}{10}{subsubsection.1.2.2.1}}
\@writefile{toc}{\contentsline {subsection}{\numberline {2.3}QActor knowledge}{10}{subsection.1.2.3}}
\newlabel{ssec:qaknowledge}{{2.3}{10}{QActor knowledge}{subsection.1.2.3}{}}
\@writefile{toc}{\contentsline {subsection}{\numberline {2.4}QActor software factory}{10}{subsection.1.2.4}}
\@writefile{toc}{\contentsline {subsection}{\numberline {2.5}Contexts }{11}{subsection.1.2.5}}
\newlabel{ssec:introctx}{{2.5}{11}{Contexts}{subsection.1.2.5}{}}
\@writefile{toc}{\contentsline {subsection}{\numberline {2.6}Messages}{11}{subsection.1.2.6}}
\newlabel{ssec:intromessages}{{2.6}{11}{Messages}{subsection.1.2.6}{}}
\@writefile{toc}{\contentsline {subsubsection}{\numberline {2.6.1}PHead. }{11}{subsubsection.1.2.6.1}}
\newlabel{ssec:phead}{{2.6.1}{11}{PHead}{subsubsection.1.2.6.1}{}}
\@writefile{toc}{\contentsline {subsection}{\numberline {2.7}Send actions}{12}{subsection.1.2.7}}
\@writefile{toc}{\contentsline {subsubsection}{\numberline {2.7.1}Operation that sends a \textit  {dispatch}}{12}{subsubsection.1.2.7.1}}
\@writefile{toc}{\contentsline {subsubsection}{\numberline {2.7.2}forward implementation (see Subsection~\ref  {ssec:sendImpl})}{12}{subsubsection.1.2.7.2}}
\@writefile{toc}{\contentsline {subsubsection}{\numberline {2.7.3}Operation that sends a \textit  {request}}{12}{subsubsection.1.2.7.3}}
\@writefile{toc}{\contentsline {subsubsection}{\numberline {2.7.4}demand implementation (see Subsection~\ref  {ssec:sendImpl})}{12}{subsubsection.1.2.7.4}}
\@writefile{toc}{\contentsline {subsection}{\numberline {2.8}Send action implementation}{12}{subsection.1.2.8}}
\newlabel{ssec:sendImpl}{{2.8}{12}{Send action implementation}{subsection.1.2.8}{}}
\@writefile{toc}{\contentsline {subsection}{\numberline {2.9}Receive actions}{12}{subsection.1.2.9}}
\@writefile{toc}{\contentsline {subsubsection}{\numberline {2.9.1}Generic receive with optional message specification}{13}{subsubsection.1.2.9.1}}
\@writefile{toc}{\contentsline {subsubsection}{\numberline {2.9.2}Receive a message with a specified structure}{13}{subsubsection.1.2.9.2}}
\@writefile{toc}{\contentsline {subsubsection}{\numberline {2.9.3}Select a message and execute}{13}{subsubsection.1.2.9.3}}
\@writefile{toc}{\contentsline {subsection}{\numberline {2.10}Receive implementation}{13}{subsection.1.2.10}}
\@writefile{lol}{\contentsline {lstlisting}{\numberline {1.2}\texttt  {IAsynchActionResult.java}}{13}{lstlisting.1.2}}
\@writefile{toc}{\contentsline {subsection}{\numberline {2.11}Events and event-based behaviour }{14}{subsection.1.2.11}}
\newlabel{ssec:introevents}{{2.11}{14}{Events and event-based behaviour}{subsection.1.2.11}{}}
\@writefile{toc}{\contentsline {subsubsection}{\numberline {2.11.1}Emit action}{14}{subsubsection.1.2.11.1}}
\@writefile{toc}{\contentsline {subsubsection}{\numberline {2.11.2}emit implementation}{14}{subsubsection.1.2.11.2}}
\@writefile{toc}{\contentsline {subsubsection}{\numberline {2.11.3}Sense action. }{14}{subsubsection.1.2.11.3}}
\@writefile{toc}{\contentsline {subsubsection}{\numberline {2.11.4}sense implementation}{14}{subsubsection.1.2.11.4}}
\@writefile{toc}{\contentsline {subsubsection}{\numberline {2.11.5}OnEvent receive actions. }{14}{subsubsection.1.2.11.5}}
\@writefile{toc}{\contentsline {subsection}{\numberline {2.12}Event handlers and event-driven behaviour }{15}{subsection.1.2.12}}
\newlabel{sec:evenHandler}{{2.12}{15}{Event handlers and event-driven behaviour}{subsection.1.2.12}{}}
\@writefile{lol}{\contentsline {lstlisting}{\numberline {1.3}\texttt  {eventTracer.qa}}{15}{lstlisting.1.3}}
\@writefile{toc}{\contentsline {section}{\numberline {3}Human interaction with a Qactor}{16}{section.1.3}}
\newlabel{sec:humaninteraction}{{3}{16}{Human interaction with a Qactor}{section.1.3}{}}
\@writefile{toc}{\contentsline {section}{\numberline {4}About actions}{17}{section.1.4}}
\@writefile{toc}{\contentsline {subsection}{\numberline {4.1}Basic actions}{17}{subsection.1.4.1}}
\newlabel{ssec:basicactions}{{4.1}{17}{Basic actions}{subsection.1.4.1}{}}
\@writefile{toc}{\contentsline {subsection}{\numberline {4.2}Timed actions}{17}{subsection.1.4.2}}
\newlabel{ssec:timedaction}{{4.2}{17}{Timed actions}{subsection.1.4.2}{}}
\@writefile{toc}{\contentsline {subsection}{\numberline {4.3}Time out}{17}{subsection.1.4.3}}
\newlabel{ssec:timeout}{{4.3}{17}{Time out}{subsection.1.4.3}{}}
\@writefile{toc}{\contentsline {subsection}{\numberline {4.4}Asynchronous actions}{18}{subsection.1.4.4}}
\newlabel{ssec:asynchaction}{{4.4}{18}{Asynchronous actions}{subsection.1.4.4}{}}
\@writefile{toc}{\contentsline {subsection}{\numberline {4.5}Reactive actions}{18}{subsection.1.4.5}}
\newlabel{ssec:reactiveaction}{{4.5}{18}{Reactive actions}{subsection.1.4.5}{}}
\@writefile{toc}{\contentsline {subsection}{\numberline {4.6}Guarded actions}{18}{subsection.1.4.6}}
\newlabel{ssec:guardedaction}{{4.6}{18}{Guarded actions}{subsection.1.4.6}{}}
\@writefile{toc}{\contentsline {section}{\numberline {5}User-defined actions in \textsf  {Prolog}}{20}{section.1.5}}
\newlabel{sec:useraction}{{5}{20}{User-defined actions in \prolog }{section.1.5}{}}
\@writefile{toc}{\contentsline {subsubsection}{\numberline {5.0.1}Examples of unification}{20}{subsubsection.1.5.0.1}}
\@writefile{toc}{\contentsline {subsection}{\numberline {5.1}The \texttt  {solve} operation.}{20}{subsection.1.5.1}}
\newlabel{ssec:solve}{{5.1}{20}{The \texttt {solve} operation}{subsection.1.5.1}{}}
\@writefile{toc}{\contentsline {subsection}{\numberline {5.2}Loading and using a user-defined theory}{20}{subsection.1.5.2}}
\@writefile{lol}{\contentsline {lstlisting}{\numberline {1.4}\texttt  {aTheoryUsage.qa}}{20}{lstlisting.1.4}}
\@writefile{lol}{\contentsline {lstlisting}{\numberline {1.5}\texttt  {aTheory.pl}}{21}{lstlisting.1.5}}
\@writefile{toc}{\contentsline {subsubsection}{\numberline {5.2.1}The initialization directive.}{21}{subsubsection.1.5.2.1}}
\@writefile{toc}{\contentsline {subsubsection}{\numberline {5.2.2}On backtracking.}{22}{subsubsection.1.5.2.2}}
\@writefile{toc}{\contentsline {subsection}{\numberline {5.3}Using the actor in \textsf  {Prolog}{} rules }{22}{subsection.1.5.3}}
\newlabel{ssec:actorobj}{{5.3}{22}{Using the actor in \prolog {} rules}{subsection.1.5.3}{}}
\@writefile{lol}{\contentsline {lstlisting}{\numberline {1.6}\texttt  {actorDanceTheory.pl}}{22}{lstlisting.1.6}}
\@writefile{lol}{\contentsline {lstlisting}{\numberline {1.7}\texttt  {dancer.qa}}{22}{lstlisting.1.7}}
\@writefile{toc}{\contentsline {subsection}{\numberline {5.4}The operator actorOp}{23}{subsection.1.5.4}}
\newlabel{ssec:actorOp}{{5.4}{23}{The operator actorOp}{subsection.1.5.4}{}}
\@writefile{lol}{\contentsline {lstlisting}{\numberline {1.8}\texttt  {actorOpdemo.qa}}{23}{lstlisting.1.8}}
\@writefile{lol}{\contentsline {lstlisting}{\numberline {1.9}\texttt  {Qaactorop.java}}{23}{lstlisting.1.9}}
\@writefile{toc}{\contentsline {subsection}{\numberline {5.5}Rules at model level}{24}{subsection.1.5.5}}
\newlabel{ssec:rulesinmodel}{{5.5}{24}{Rules at model level}{subsection.1.5.5}{}}
\@writefile{lol}{\contentsline {lstlisting}{\numberline {1.10}\texttt  {rulesInModel.qa}}{24}{lstlisting.1.10}}
\@writefile{toc}{\contentsline {subsection}{\numberline {5.6}From \textsf  {Prolog}{} to \textsf  {Java}{} again}{24}{subsection.1.5.6}}
\newlabel{ssec:javafromprolog}{{5.6}{24}{From \prolog {} to \java {} again}{subsection.1.5.6}{}}
\@writefile{lol}{\contentsline {lstlisting}{\numberline {1.11}\texttt  {userSelect.qa}}{24}{lstlisting.1.11}}
\@writefile{toc}{\contentsline {subsubsection}{\numberline {5.6.1}Guards as problem-solving operation.}{25}{subsubsection.1.5.6.1}}
\@writefile{toc}{\contentsline {subsubsection}{\numberline {5.6.2}The user-defined \texttt  {select/1} operation.}{25}{subsubsection.1.5.6.2}}
\@writefile{lol}{\contentsline {lstlisting}{\numberline {1.12}\texttt  {userTheory.pl}}{25}{lstlisting.1.12}}
\@writefile{lol}{\contentsline {lstlisting}{\numberline {1.13}\texttt  {QActorUtils.java}}{26}{lstlisting.1.13}}
\@writefile{toc}{\contentsline {subsection}{\numberline {5.7}Workflow}{26}{subsection.1.5.7}}
\newlabel{ssec:prologworkflw}{{5.7}{26}{Workflow}{subsection.1.5.7}{}}
\@writefile{toc}{\contentsline {subsection}{\numberline {5.8}Examples of problem solving with \textsf  {tuProlog}{} }{26}{subsection.1.5.8}}
\newlabel{ssec:moreexamples}{{5.8}{26}{Examples of problem solving with \tuprolog {}}{subsection.1.5.8}{}}
\@writefile{lol}{\contentsline {lstlisting}{\numberline {1.14}\texttt  {theoryExanple.qa}}{26}{lstlisting.1.14}}
\@writefile{lol}{\contentsline {lstlisting}{\numberline {1.15}\texttt  {exampleTheory.pl}}{27}{lstlisting.1.15}}
\@writefile{toc}{\contentsline {subsubsection}{\numberline {5.8.1}configuration.}{28}{subsubsection.1.5.8.1}}
\@writefile{lol}{\contentsline {lstlisting}{\numberline {1.16}\texttt  {theoryexanple.pl}}{28}{lstlisting.1.16}}
\@writefile{toc}{\contentsline {subsubsection}{\numberline {5.8.2}family.}{29}{subsubsection.1.5.8.2}}
\newlabel{ssec:accessData}{{5.8.3}{29}{accessData}{subsubsection.1.5.8.3}{}}
\@writefile{toc}{\contentsline {subsubsection}{\numberline {5.8.3}accessData.}{29}{subsubsection.1.5.8.3}}
\@writefile{toc}{\contentsline {subsubsection}{\numberline {5.8.4}output.}{29}{subsubsection.1.5.8.4}}
